<?xml version="1.0" encoding="UTF-8" standalone="no"?>
<svg
   width="16"
   height="16.001"
   version="1.1"
   id="svg8"
   sodipodi:docname="threshold-inactive.svg"
   inkscape:version="1.1.2 (0a00cf5339, 2022-02-04)"
   xmlns:inkscape="http://www.inkscape.org/namespaces/inkscape"
   xmlns:sodipodi="http://sodipodi.sourceforge.net/DTD/sodipodi-0.dtd"
   xmlns="http://www.w3.org/2000/svg"
   xmlns:svg="http://www.w3.org/2000/svg">
  <defs
     id="defs12" />
  <sodipodi:namedview
     id="namedview10"
     pagecolor="#505050"
     bordercolor="#eeeeee"
     borderopacity="1"
     inkscape:pageshadow="0"
     inkscape:pageopacity="0"
     inkscape:pagecheckerboard="0"
     showgrid="false"
     inkscape:zoom="41.009632"
     inkscape:cx="9.6318835"
     inkscape:cy="7.9737365"
     inkscape:window-width="1366"
     inkscape:window-height="699"
     inkscape:window-x="0"
     inkscape:window-y="0"
     inkscape:window-maximized="1"
     inkscape:current-layer="g6" />
  <g
     fill="#2e3436"
     id="g6"
     style="fill:#474747">
    <path
       d="M 5.469,0 C 4.979,0 4.673,0.216 4.437,0.456 4.202,0.696 4,1.012 4,1.486 V 2 H 2 V 16 H 14 V 2 H 12 V 1.594 L 11.998,1.566 A 1.616,1.616 0 0 0 11.582,0.554 C 11.346,0.276 10.962,-0.03 10.382,0.002 L 10.438,0 Z M 6,2 h 4 v 2 h 2 V 14 H 4 V 4 h 2 z"
       style="line-height:normal;font-variant-ligatures:normal;font-variant-position:normal;font-variant-caps:normal;font-variant-numeric:normal;font-variant-alternates:normal;font-feature-settings:normal;text-indent:0;text-align:start;text-decoration-line:none;text-decoration-style:solid;text-decoration-color:#000000;text-transform:none;text-orientation:mixed;white-space:normal;shape-padding:0;isolation:auto;mix-blend-mode:normal;solid-color:#000000;solid-opacity:1;fill:#e01b24;fill-opacity:1;marker:none"
       color="#bebebe"
       font-weight="400"
       font-family="sans-serif"
       overflow="visible"
       id="path2" />
    <path
       d="m 7,4.8410772 h 2 v 3 l -0.25,2 H 7.281 l -0.28,-2 z m 1,5.7499998 a 1.25,1.25 0 1 1 0,2.5 1.25,1.25 0 0 1 0,-2.5 z"
       style="line-height:normal;-inkscape-font-specification:Sans;text-indent:0;text-align:start;text-decoration-line:none;text-transform:none;opacity:1;fill:#e01b24;fill-opacity:1;marker:none"
       font-family="Sans"
       overflow="visible"
       id="path4" />
  </g>
</svg>
